{
  "eng": {
    "mobileimgs": {

    }
  },

  "common": {
    "mobileimgs": {

    }
  },

  "fr": {
    "mobileimgs": {

    }
  },

  "exampledata": {
    "wiper": {
     "src": "@@img/eng/desktop/01_wiper.jpg",
     "selector": "img-wiper",
     "width": "326",
     "height": "193",
     "alt": "Get a Free pair of $40 wiper blades with any oil change."
    }
  }
}
